<?xml version="1.0" encoding="UTF-8" standalone="no"?>
<!-- Created with Inkscape (http://www.inkscape.org/) -->

<svg
   xmlns:dc="http://purl.org/dc/elements/1.1/"
   xmlns:cc="http://creativecommons.org/ns#"
   xmlns:rdf="http://www.w3.org/1999/02/22-rdf-syntax-ns#"
   xmlns:svg="http://www.w3.org/2000/svg"
   xmlns="http://www.w3.org/2000/svg"
   xmlns:sodipodi="http://sodipodi.sourceforge.net/DTD/sodipodi-0.dtd"
   xmlns:inkscape="http://www.inkscape.org/namespaces/inkscape"
   width="708.25623"
   height="169.62581"
   id="svg2"
   version="1.1"
   inkscape:version="0.48.3.1 r9886"
   sodipodi:docname="ubx_ros_bridge.svg"
   inkscape:export-filename="/home/sblume/my_documents/robotics/phd/doc/sketches/ubx_ros_bridge.png"
   inkscape:export-xdpi="90"
   inkscape:export-ydpi="90">
  <defs
     id="defs4">
    <marker
       inkscape:stockid="Arrow2Mend"
       orient="auto"
       refY="0"
       refX="0"
       id="Arrow2Mend"
       style="overflow:visible">
      <path
         id="path4153"
         style="fill-rule:evenodd;stroke-width:0.625;stroke-linejoin:round"
         d="M 8.7185878,4.0337352 -2.2072895,0.01601326 8.7185884,-4.0017078 c -1.7454984,2.3720609 -1.7354408,5.6174519 -6e-7,8.035443 z"
         transform="scale(-0.6,-0.6)"
         inkscape:connector-curvature="0" />
    </marker>
    <marker
       inkscape:stockid="Arrow1Lend"
       orient="auto"
       refY="0"
       refX="0"
       id="Arrow1Lend"
       style="overflow:visible">
      <path
         id="path4129"
         d="M 0,0 5,-5 -12.5,0 5,5 0,0 z"
         style="fill-rule:evenodd;stroke:#000000;stroke-width:1pt"
         transform="matrix(-0.8,0,0,-0.8,-10,0)"
         inkscape:connector-curvature="0" />
    </marker>
    <marker
       inkscape:stockid="Arrow1Lend"
       orient="auto"
       refY="0"
       refX="0"
       id="Arrow1Lend-1"
       style="overflow:visible">
      <path
         inkscape:connector-curvature="0"
         id="path4129-9"
         d="M 0,0 5,-5 -12.5,0 5,5 0,0 z"
         style="fill-rule:evenodd;stroke:#000000;stroke-width:1pt"
         transform="matrix(-0.8,0,0,-0.8,-10,0)" />
    </marker>
    <marker
       inkscape:stockid="Arrow1Lend"
       orient="auto"
       refY="0"
       refX="0"
       id="Arrow1Lend-1-6"
       style="overflow:visible">
      <path
         inkscape:connector-curvature="0"
         id="path4129-9-0"
         d="M 0,0 5,-5 -12.5,0 5,5 0,0 z"
         style="fill-rule:evenodd;stroke:#000000;stroke-width:1pt"
         transform="matrix(-0.8,0,0,-0.8,-10,0)" />
    </marker>
  </defs>
  <sodipodi:namedview
     id="base"
     pagecolor="#ffffff"
     bordercolor="#666666"
     borderopacity="1.0"
     inkscape:pageopacity="0.0"
     inkscape:pageshadow="2"
     inkscape:zoom="1.6422555"
     inkscape:cx="408.5557"
     inkscape:cy="60.206774"
     inkscape:document-units="px"
     inkscape:current-layer="layer1"
     showgrid="false"
     showguides="true"
     inkscape:guide-bbox="true"
     inkscape:window-width="1855"
     inkscape:window-height="1056"
     inkscape:window-x="65"
     inkscape:window-y="24"
     inkscape:window-maximized="1"
     fit-margin-top="0.2"
     fit-margin-left="0.3"
     fit-margin-right="0.3"
     fit-margin-bottom="0.3">
    <inkscape:grid
       type="xygrid"
       id="grid3923"
       empspacing="5"
       visible="true"
       enabled="true"
       snapvisiblegridlinesonly="true"
       originx="-10.7px"
       originy="-877.6279px" />
  </sodipodi:namedview>
  <metadata
     id="metadata7">
    <rdf:RDF>
      <cc:Work
         rdf:about="">
        <dc:format>image/svg+xml</dc:format>
        <dc:type
           rdf:resource="http://purl.org/dc/dcmitype/StillImage" />
        <dc:title></dc:title>
      </cc:Work>
    </rdf:RDF>
  </metadata>
  <g
     inkscape:label="Layer 1"
     inkscape:groupmode="layer"
     id="layer1"
     transform="translate(-10.7,-5.1084754)">
    <g
       id="g4006"
       transform="translate(-124.09064,-254.07133)">
      <text
         sodipodi:linespacing="125%"
         id="text3763"
         y="380.61075"
         x="177.88155"
         style="font-size:10px;font-style:normal;font-weight:normal;line-height:125%;letter-spacing:0px;word-spacing:0px;fill:#000000;fill-opacity:1;stroke:none;font-family:Sans"
         xml:space="preserve"><tspan
           style="font-size:12px"
           y="380.61075"
           x="177.88155"
           id="tspan3765"
           sodipodi:role="line">publisher iblock</tspan></text>
      <rect
         ry="11.59157"
         y="346.79968"
         x="171.09375"
         height="40.625"
         width="128.125"
         id="rect3767"
         style="fill:none;stroke:#000000;stroke-width:1.20000005;stroke-miterlimit:4;stroke-opacity:1;stroke-dasharray:none;stroke-dashoffset:0" />
      <text
         sodipodi:linespacing="125%"
         id="text3771"
         y="360.17612"
         x="179.65115"
         style="font-size:10px;font-style:normal;font-weight:normal;line-height:125%;letter-spacing:0px;word-spacing:0px;fill:#000000;fill-opacity:1;stroke:none;font-family:Sans"
         xml:space="preserve"><tspan
           y="360.17612"
           x="179.65115"
           id="tspan3773"
           sodipodi:role="line"><tspan
             id="tspan3799"
             style="font-style:normal;font-variant:normal;font-weight:500;font-stretch:normal;font-family:TlwgTypewriter;-inkscape-font-specification:TlwgTypewriter Medium">write(...) </tspan></tspan></text>
      <g
         transform="matrix(0,-1,1,0,-100.75992,565.61956)"
         id="g3791">
        <rect
           style="fill:none;stroke:#000000;stroke-width:1.20000005;stroke-miterlimit:4;stroke-opacity:1;stroke-dasharray:none;stroke-dashoffset:0"
           id="rect3775"
           width="13.330778"
           height="13.982714"
           x="219.18605"
           y="330.85056"
           ry="0" />
        <g
           id="g3785">
          <text
             sodipodi:linespacing="125%"
             id="text3777"
             y="341.14432"
             x="221.58754"
             style="font-size:10px;font-style:normal;font-weight:normal;line-height:125%;letter-spacing:0px;word-spacing:0px;fill:#000000;fill-opacity:1;stroke:none;font-family:Sans"
             xml:space="preserve"><tspan
               style="font-weight:bold;-inkscape-font-specification:Sans Bold"
               y="341.14432"
               x="221.58754"
               id="tspan3779"
               sodipodi:role="line">C</tspan></text>
          <text
             sodipodi:linespacing="125%"
             id="text3781"
             y="339.49988"
             x="235.97633"
             style="font-size:10px;font-style:normal;font-weight:normal;line-height:125%;letter-spacing:0px;word-spacing:0px;fill:#000000;fill-opacity:1;stroke:none;font-family:Sans"
             xml:space="preserve"><tspan
               y="339.49988"
               x="235.97633"
               id="tspan3783"
               sodipodi:role="line">topic_name</tspan></text>
        </g>
      </g>
    </g>
    <g
       id="g3965"
       transform="translate(-122.5167,-245.6343)">
      <path
         inkscape:connector-curvature="0"
         id="path3891"
         d="m 477.42604,360.52704 c 0,7.5871 -13.67792,13.726 -30.56124,13.726 -2.71027,0 -5.33793,-0.15353 -7.84006,-0.45103 -5.08071,7.55282 -14.92801,12.66548 -26.21674,12.66548 -4.01033,0 -7.84162,-0.64474 -11.33563,-1.81633 -5.21786,3.43864 -12.20976,5.54648 -19.92473,5.54648 -8.74209,0 -16.57415,-2.70178 -21.92219,-6.98491 -1.23104,0.13086 -2.50139,0.20724 -3.7952,0.20724 -11.89507,0 -21.52269,-5.77832 -21.52269,-12.89709 0,-5.16681 5.05056,-9.62246 12.38426,-11.67807 -0.82642,-1.10691 -1.29832,-2.31444 -1.29832,-3.58388 0,-5.24541 7.78516,-9.49605 17.37793,-9.49605 1.28985,0 2.53559,0.0858 3.74527,0.2316 1.47346,-11.64748 9.78684,-20.57681 19.87478,-20.57681 6.4958,0 12.29523,3.71461 15.97975,9.45949 4.31419,-1.05717 9.28392,-1.65785 14.58152,-1.65785 16.49958,0 29.91205,5.84312 29.91205,13.05555 0,0.17368 -0.0344,0.33996 -0.0498,0.51198 0.0175,-10e-6 0.0334,0 0.0498,0 16.8833,0 30.56124,6.15109 30.56124,13.7382 z"
         style="fill:#ffffff;fill-opacity:1;stroke:#000000;stroke-width:0.94742304;stroke-miterlimit:4;stroke-opacity:1;stroke-dasharray:none;stroke-dashoffset:0" />
      <text
         sodipodi:linespacing="125%"
         id="text3763-5"
         y="362.36218"
         x="375"
         style="font-size:10px;font-style:normal;font-weight:normal;line-height:125%;letter-spacing:0px;word-spacing:0px;fill:#000000;fill-opacity:1;stroke:none;font-family:Sans"
         xml:space="preserve"><tspan
           style="font-size:12px"
           y="362.36218"
           x="375"
           id="tspan3765-6"
           sodipodi:role="line">ROS topic</tspan></text>
    </g>
    <g
       id="g4678"
       transform="translate(26,0)">
      <text
         sodipodi:linespacing="125%"
         id="text3763-6"
         y="126.67892"
         x="381.98615"
         style="font-size:10px;font-style:normal;font-weight:normal;line-height:125%;letter-spacing:0px;word-spacing:0px;fill:#000000;fill-opacity:1;stroke:none;font-family:Sans"
         xml:space="preserve"><tspan
           style="font-size:12px"
           y="126.67892"
           x="381.98615"
           id="tspan3765-9"
           sodipodi:role="line">subscriber iblock</tspan></text>
      <rect
         ry="11.59157"
         y="92.867859"
         x="375.19836"
         height="40.625"
         width="128.125"
         id="rect3767-9"
         style="fill:none;stroke:#000000;stroke-width:1.20000005;stroke-miterlimit:4;stroke-opacity:1;stroke-dasharray:none;stroke-dashoffset:0" />
      <text
         sodipodi:linespacing="125%"
         id="text3771-9"
         y="106.36218"
         x="446"
         style="font-size:10px;font-style:normal;font-weight:normal;line-height:125%;letter-spacing:0px;word-spacing:0px;fill:#000000;fill-opacity:1;stroke:none;font-family:Sans"
         xml:space="preserve"><tspan
           y="106.36218"
           x="446"
           id="tspan3773-1"
           sodipodi:role="line"><tspan
             id="tspan3799-9"
             style="font-style:normal;font-variant:normal;font-weight:500;font-stretch:normal;font-family:TlwgTypewriter;-inkscape-font-specification:TlwgTypewriter Medium">read(...) </tspan></tspan></text>
      <g
         transform="matrix(0,-1,1,0,87.34469,311.68772)"
         id="g3791-2">
        <rect
           style="fill:none;stroke:#000000;stroke-width:1.20000005;stroke-miterlimit:4;stroke-opacity:1;stroke-dasharray:none;stroke-dashoffset:0"
           id="rect3775-3"
           width="13.330778"
           height="13.982714"
           x="219.18605"
           y="330.85056"
           ry="0" />
        <g
           id="g3785-8">
          <text
             sodipodi:linespacing="125%"
             id="text3777-9"
             y="341.14432"
             x="221.58754"
             style="font-size:10px;font-style:normal;font-weight:normal;line-height:125%;letter-spacing:0px;word-spacing:0px;fill:#000000;fill-opacity:1;stroke:none;font-family:Sans"
             xml:space="preserve"><tspan
               style="font-weight:bold;-inkscape-font-specification:Sans Bold"
               y="341.14432"
               x="221.58754"
               id="tspan3779-7"
               sodipodi:role="line">C</tspan></text>
          <text
             sodipodi:linespacing="125%"
             id="text3781-7"
             y="339.49988"
             x="235.97633"
             style="font-size:10px;font-style:normal;font-weight:normal;line-height:125%;letter-spacing:0px;word-spacing:0px;fill:#000000;fill-opacity:1;stroke:none;font-family:Sans"
             xml:space="preserve"><tspan
               y="339.49988"
               x="235.97633"
               id="tspan3783-5"
               sodipodi:role="line">topic_name</tspan></text>
        </g>
      </g>
      <g
         transform="matrix(0,-1,1,0,119.50012,311.33852)"
         id="g3791-2-3">
        <rect
           style="fill:none;stroke:#000000;stroke-width:1.20000005;stroke-miterlimit:4;stroke-opacity:1;stroke-dasharray:none;stroke-dashoffset:0"
           id="rect3775-3-3"
           width="13.330778"
           height="13.982714"
           x="219.18605"
           y="330.85056"
           ry="0" />
        <g
           id="g3785-8-9">
          <text
             sodipodi:linespacing="125%"
             id="text3777-9-4"
             y="341.14432"
             x="221.58754"
             style="font-size:10px;font-style:normal;font-weight:normal;line-height:125%;letter-spacing:0px;word-spacing:0px;fill:#000000;fill-opacity:1;stroke:none;font-family:Sans"
             xml:space="preserve"><tspan
               style="font-weight:bold;-inkscape-font-specification:Sans Bold"
               y="341.14432"
               x="221.58754"
               id="tspan3779-7-6"
               sodipodi:role="line">C</tspan></text>
          <text
             sodipodi:linespacing="125%"
             id="text3781-7-9"
             y="339.49988"
             x="235.97633"
             style="font-size:10px;font-style:normal;font-weight:normal;line-height:125%;letter-spacing:0px;word-spacing:0px;fill:#000000;fill-opacity:1;stroke:none;font-family:Sans"
             xml:space="preserve"><tspan
               y="339.49988"
               x="235.97633"
               id="tspan3783-5-7"
               sodipodi:role="line">trigger_blocks</tspan></text>
        </g>
      </g>
    </g>
    <rect
       style="fill:#ffffff;fill-opacity:1;stroke:#000000;stroke-width:1.29614818;stroke-miterlimit:4;stroke-opacity:1;stroke-dasharray:none;stroke-dashoffset:0"
       id="rect4112"
       width="140"
       height="60"
       x="578"
       y="76.362183"
       ry="0" />
    <text
       xml:space="preserve"
       style="font-size:10px;font-style:normal;font-weight:normal;line-height:125%;letter-spacing:0px;word-spacing:0px;fill:#000000;fill-opacity:1;stroke:none;font-family:Sans"
       x="584"
       y="90.362183"
       id="text4114"
       sodipodi:linespacing="125%"><tspan
         sodipodi:role="line"
         id="tspan4116"
         x="584"
         y="90.362183"
         style="font-size:12px;font-weight:bold;-inkscape-font-specification:Sans Bold">some_computation</tspan></text>
    <rect
       style="fill:#ffffff;fill-opacity:1;stroke:#000000;stroke-width:1.20000005;stroke-miterlimit:4;stroke-opacity:1;stroke-dasharray:none;stroke-dashoffset:0"
       id="rect4118"
       width="15"
       height="15"
       x="568"
       y="96.362183" />
    <path
       style="fill:#0000ff;fill-opacity:1;stroke:#0000ff;stroke-width:0.93541437px;stroke-linecap:butt;stroke-linejoin:miter;stroke-opacity:1;marker-end:url(#Arrow1Lend)"
       d="m 530.2465,103.54625 35,0"
       id="path4120"
       inkscape:connector-type="polyline"
       inkscape:connector-curvature="0" />
    <path
       style="fill:#0000ff;fill-opacity:1;stroke:#0000ff;stroke-width:0.93541437px;stroke-linecap:butt;stroke-linejoin:miter;stroke-opacity:1;marker-end:url(#Arrow1Lend)"
       d="m 10.999997,105.36218 35,0"
       id="path4120-1"
       inkscape:connector-type="polyline"
       inkscape:connector-curvature="0" />
    <text
       xml:space="preserve"
       style="font-size:10px;font-style:normal;font-weight:normal;line-height:125%;letter-spacing:0px;word-spacing:0px;fill:#000000;fill-opacity:1;stroke:none;font-family:Sans"
       x="591"
       y="107.36218"
       id="text3771-9-7"
       sodipodi:linespacing="125%"><tspan
         sodipodi:role="line"
         id="tspan3773-1-2"
         x="591"
         y="107.36218"><tspan
           style="font-style:normal;font-variant:normal;font-weight:500;font-stretch:normal;font-family:TlwgTypewriter;-inkscape-font-specification:TlwgTypewriter Medium"
           id="tspan3799-9-5">port_read(...) </tspan></tspan></text>
    <text
       xml:space="preserve"
       style="font-size:10px;font-style:normal;font-weight:normal;line-height:125%;letter-spacing:0px;word-spacing:0px;fill:#000000;fill-opacity:1;stroke:none;font-family:Sans"
       x="591"
       y="126.36218"
       id="text3771-9-8"
       sodipodi:linespacing="125%"><tspan
         sodipodi:role="line"
         id="tspan3773-1-7"
         x="591"
         y="126.36218"><tspan
           style="font-style:normal;font-variant:normal;font-weight:500;font-stretch:normal;font-family:TlwgTypewriter;-inkscape-font-specification:TlwgTypewriter Medium"
           id="tspan3799-9-1">step(...) </tspan></tspan></text>
    <path
       style="fill:none;stroke:#ffa200;stroke-width:1;stroke-linecap:butt;stroke-linejoin:miter;stroke-miterlimit:4;stroke-opacity:1;stroke-dasharray:3, 1;stroke-dashoffset:0;marker-end:url(#Arrow1Lend-1)"
       d="m 466,132.36218 0,30 140,0 0,-25"
       id="path4719"
       inkscape:connector-curvature="0" />
    <path
       style="fill:none;stroke:#000000;stroke-width:0.94868332;stroke-linecap:butt;stroke-linejoin:miter;stroke-miterlimit:4;stroke-opacity:1;stroke-dasharray:0.9486833, 0.9486833;stroke-dashoffset:0;marker-start:none;marker-end:url(#Arrow1Lend-1)"
       d="m 175,112.36218 45,0"
       id="path5277"
       inkscape:connector-curvature="0" />
    <path
       style="fill:none;stroke:#000000;stroke-width:0.94868332;stroke-linecap:butt;stroke-linejoin:miter;stroke-miterlimit:4;stroke-opacity:1;stroke-dasharray:0.9486833, 0.9486833;stroke-dashoffset:0;marker-start:none;marker-end:url(#Arrow1Lend-1)"
       d="m 355,112.36218 45,0"
       id="path5277-6"
       inkscape:connector-curvature="0" />
    <text
       xml:space="preserve"
       style="font-size:10px;font-style:normal;font-weight:normal;line-height:125%;letter-spacing:0px;word-spacing:0px;fill:#000000;fill-opacity:1;stroke:none;font-family:Sans"
       x="495.48978"
       y="172.27608"
       id="text5671"
       sodipodi:linespacing="125%"><tspan
         sodipodi:role="line"
         id="tspan5673"
         x="495.48978"
         y="172.27608"
         style="font-style:normal;font-weight:bold;-inkscape-font-specification:Sans Bold">Event-triggered</tspan></text>
    <path
       style="fill:none;stroke:#000000;stroke-width:0.69999999;stroke-linecap:butt;stroke-linejoin:miter;stroke-miterlimit:4;stroke-opacity:1;stroke-dasharray:none;marker-end:url(#Arrow2Mend)"
       d="m 570.16146,103.49243 10,0"
       id="path5675"
       inkscape:connector-curvature="0" />
  </g>
</svg>
